-897.773oz -126.45649oz -500.61432oz +118.7791oz -245.24345oz +320.0689oz 
+138.95415oz -223.2281oz +776.6725oz -0.91137314oz +751.65137oz -541.6484oz 
+101.08594oz -100.85805oz -128.477oz -620.00806oz +625.2338oz -88.461975oz 
+725.92236oz -675.0947oz -374.72772oz -740.54736oz +655.1151oz -256.03052oz 
-40.33682oz -600.8743oz +959.34686oz +188.56342oz -940.8492oz -879.7828oz 
-997.61926oz -681.0404oz -843.9037oz -798.72174oz -0.6141814oz -720.9692oz 
+836.20013oz +633.5699oz +115.49431oz +141.0741oz -684.4923oz +960.6539oz 
-505.9408oz -983.7537oz -378.7714oz +859.371oz -323.83405oz +42.84491oz 
-799.0455oz +75.321526oz +618.98346oz -711.6003oz -697.1215oz +397.85822oz 
-503.31302oz -515.78577oz -434.7962oz -755.95795oz +135.9088oz +960.8035oz 
+169.86113oz +786.32294oz -345.3341oz +571.7474oz -431.32986oz +877.61664oz 
-955.6193oz +255.29642oz +275.2922oz +944.7416oz -132.3323oz +362.35324oz 
-462.8019oz +437.06485oz +315.1353oz -80.33313oz +351.20465oz -334.49738oz 
+553.2352oz +34.01037oz +440.31213oz -135.33374oz -310.1332oz +223.82794oz 
+764.8285oz -89.758484oz -54.07942oz +680.5768oz +574.4355oz -182.9248oz 
+200.6402oz -465.35086oz +992.94257oz -621.51276oz +223.78291oz +893.6847oz 
+597.9084oz +827.67224oz +1.8851064oz -112.77892oz -112.13939oz -194.25798oz 
+715.07446oz +410.72058oz +648.4723oz +105.2618oz +860.30536oz -886.6044oz 
-199.24638oz -975.3492oz +200.57855oz -360.4609oz +311.87238oz +312.4059oz 
-714.7103oz -651.8985oz +141.90314oz +57.00148oz +864.05695oz -606.3645oz 
-325.01355oz +702.67487oz +742.601oz -497.9323oz -359.29514oz -950.94977oz 
+926.8063oz -687.521oz -439.2719oz +904.9845oz -91.64594oz +665.45276oz 
-933.04364oz +55.76417oz -709.2123oz -857.2555oz -943.9629oz +564.73987oz 
+396.31284oz -821.6159oz -648.25183oz +596.8222oz -727.45953oz -719.3898oz 
+349.9655oz -707.63525oz -579.6574oz +182.5759oz -444.7072oz +538.9367oz 
+325.39844oz +962.15924oz +733.50287oz -326.11075oz +440.26776oz +983.7304oz 
-778.2402oz -971.6404oz -341.5675oz +689.7866oz -240.07895oz -688.4644oz 
-524.3652oz +797.6221oz +392.23898oz -467.12653oz -311.37253oz +851.7117oz 
+248.57158oz -870.62146oz +783.0612oz -199.4967oz -999.3209oz +910.8459oz 
+704.4217oz -269.47705oz +695.48175oz -10.558953oz -514.7711oz -280.517oz 
-373.15958oz -304.75977oz +697.01715oz +761.2706oz -59.3392oz +785.3873oz 
-92.78333oz -508.6331oz +350.46863oz +43.249615oz +979.8026oz +864.12396oz 
-505.26398oz +611.0879oz -977.9853oz -437.10916oz +243.14163oz +161.68253oz 
-100.56725oz +653.76715oz +689.6846oz +64.90659oz +516.74554oz +760.70636oz 
-160.54816oz -57.633335oz -842.2061oz -162.13962oz +725.21234oz +30.404099oz 
+23.952127oz +219.52182oz -741.98627oz -184.7626oz -135.83649oz -892.5575oz 
-805.6717oz +65.16205oz -651.20715oz -850.484oz +799.29114oz +219.35121oz 
+9.070339oz +932.537oz -991.28723oz -491.1457oz +540.17755oz +86.50427oz 
-369.59985oz -199.49095oz +69.44378oz +164.27422oz +654.0265oz +707.7226oz 
-761.1021oz +203.28503oz +678.2727oz +136.9314oz -23.001795oz +72.78124oz 
+83.09914oz +227.33775oz +536.4551oz -613.7835oz -511.9704oz +601.58325oz 
-728.04004oz +651.6781oz +750.6129oz +933.8448oz -249.76529oz +510.33224oz 
-501.88788oz +778.6776oz +284.0023oz -906.64154oz -737.385oz +63.493664oz 
-739.59247oz -354.41577oz +817.1441oz -498.58163oz +655.5346oz +456.50952oz 
-818.9102oz -408.57434oz +378.6591oz +714.1034oz +768.3283oz -739.27057oz 
-331.69534oz -732.0424oz +711.4851oz -243.7169oz -438.13855oz +949.1382oz 
-821.2022oz -101.45596oz -520.3218oz -272.34003oz +978.4888oz -474.8478oz 
+237.10011oz +243.68265oz +520.5587oz +756.3699oz +377.55276oz +618.91534oz 
+96.81932oz +510.80246oz +577.10944oz +486.72012oz +824.237oz -366.2057oz 
+772.50757oz +307.424oz -183.48712oz +357.59402oz +961.9858oz -500.1126oz 
+347.29346oz -477.21512oz -87.1212oz -457.05045oz +882.36395oz -435.33847oz 
-102.71531oz -114.31502oz +16.329042oz -885.4612oz -551.1359oz -457.55014oz 
+911.08844oz +617.8358oz +207.52068oz +591.7454oz +633.9731oz -475.2278oz 
+612.2488oz -253.94794oz +768.1281oz -994.80774oz -557.08685oz +897.81177oz 
+853.5232oz +30.085428oz +841.41565oz +728.89294oz +99.99701oz -856.7914oz 
+864.94324oz +319.59464oz -63.74111oz +516.61285oz +873.3115oz +682.6696oz 
-228.63033oz -402.68936oz -923.00195oz -932.18634oz -683.8055oz -340.7755oz 
-881.94684oz -910.86456oz +338.91473oz +669.976oz +32.252384oz +412.6865oz 
+368.4202oz -76.959946oz -91.44011oz +879.6906oz +826.3752oz +187.56015oz 
-718.6121oz -701.85333oz +623.07947oz -169.6643oz -821.94727oz -498.96597oz 
+305.0179oz -851.3036oz -233.93393oz -13.411802oz -329.48898oz +107.84538oz 
-570.7463oz +492.75076oz -775.3298oz +522.19635oz +342.16916oz -691.0175oz 
+681.14307oz +571.9218oz +628.4792oz -867.63885oz -452.43362oz -847.18805oz 
-890.68726oz +412.87723oz +29.058655oz -53.433445oz +730.5494oz +978.7064oz 
+754.40027oz +802.6752oz -666.75165oz +244.02542oz -137.66487oz -447.357oz 
-243.67584oz +693.11694oz +950.7164oz -460.64514oz -39.151836oz -36.257076oz 
+350.8494oz +117.078026oz +387.60312oz -151.38177oz -970.9086oz +477.47626oz 
-884.99164oz +675.7169oz -168.16072oz +932.0191oz -991.96796oz -626.2778oz 
-873.3245oz +805.3939oz +301.6338oz -678.14465oz -731.16693oz -777.9242oz 
-288.3219oz -979.4205oz +474.06897oz -126.583305oz +603.8009oz +631.77673oz 
-719.9704oz +39.799366oz -237.3103oz +215.49408oz +636.09717oz -509.95816oz 
-105.83244oz +987.904oz -159.8792oz +557.5097oz +891.0075oz -634.13727oz 
-718.46423oz -790.5857oz -189.09798oz -699.08606oz -638.2342oz -554.03253oz 
+290.40833oz +79.48549oz -685.7303oz -171.76811oz -154.56693oz +205.02133oz 
-431.3929oz -36.366737oz -398.0757oz +787.36945oz +377.52274oz +549.77997oz 
-360.5343oz -266.074oz +41.869316oz +169.09846oz +565.9447oz +330.16995oz 
-438.25366oz +61.26204oz -145.50273oz -144.45663oz +645.63oz +120.62317oz 
-38.282654oz -159.32861oz -406.99466oz +353.27136oz -36.220924oz -633.0694oz 
-949.5466oz -882.0236oz -989.8057oz +245.51541oz +467.5071oz +75.98762oz 
-740.8782oz -431.99536oz -959.00433oz +558.6044oz -598.9516oz +316.45197oz 
-358.42883oz -98.075516oz -427.45523oz -372.6521oz +155.66695oz -634.0826oz 
-656.3083oz +192.39136oz +943.6174oz -944.70374oz -787.2312oz -989.5997oz 
-585.398oz -707.4347oz -208.19946oz +719.2541oz -942.649oz +958.21985oz 
+383.44717oz +940.00464oz +356.33804oz +202.3998oz +735.4259oz +799.42035oz 
+321.4745oz +681.4818oz +785.1256oz +770.76044oz +47.138348oz +549.639oz 
+367.1632oz +20.178413oz -843.2306oz -963.8453oz +986.04614oz -533.2639oz 
+525.35077oz -341.55106oz -630.0157oz +379.82953oz +279.20834oz +289.80756oz 
+608.87787oz -745.8483oz +675.974oz +959.7443oz +232.22665oz -611.4488oz 
+779.9772oz -830.3076oz -394.46735oz -203.87247oz -540.1558oz +175.16496oz 
+383.04477oz +604.3023oz -906.6654oz +716.68243oz -476.2836oz -137.46584oz 
-364.05188oz +220.8813oz -147.24684oz +422.92102oz +822.39703oz -37.279438oz 
+940.0185oz -216.9304oz -57.840366oz +837.5246oz -334.81677oz +423.82993oz 
-143.88496oz -56.72532oz -168.34418oz -905.7984oz -564.89343oz -791.38586oz 
+425.7807oz +969.9345oz -953.1799oz +157.85121oz +470.8262oz +661.54663oz 
+641.1044oz +365.16904oz -30.198528oz +242.56277oz -469.5761oz +6.273872oz 
+498.99323oz -483.9664oz +544.37146oz -321.4006oz +383.31155oz +651.16376oz 
-881.6732oz -437.63324oz -946.56274oz -311.19058oz -134.23747oz +838.495oz 
-375.84656oz -340.66232oz -839.594oz -567.48627oz -34.8232oz +763.3763oz 
+881.68634oz -919.4767oz +619.47577oz -296.47oz +107.35889oz +623.857oz 
-283.1724oz -734.0438oz +289.09525oz +773.3582oz +47.433643oz -547.1524oz 
-875.4164oz +2.4427335oz +64.81197oz -329.07245oz +220.34312oz +669.1749oz 
-550.28925oz -964.7526oz +233.3299oz +44.476788oz +447.59827oz -653.35156oz 
+641.0759oz -762.67523oz -146.87538oz +162.77089oz +302.6205oz -37.247074oz 
-820.04944oz +945.0888oz +269.12753oz +395.66785oz -190.37389oz +991.8008oz 
-529.76666oz +937.2713oz -802.5086oz +557.77405oz +635.09705oz +368.02484oz 
-109.55684oz +132.82123oz -639.3593oz -316.1282oz -943.46387oz +289.80002oz 
+53.082775oz +682.34094oz -185.18442oz -288.14514oz +747.4139oz +28.945143oz 
-701.0236oz +561.7385oz -1.5717847oz +261.24957oz +861.5589oz -470.02405oz 
-134.83813oz -105.541824oz +209.54884oz +941.2735oz -414.4862oz +137.39432oz 
+93.2347oz -886.9092oz +181.05669oz -364.23044oz -331.44162oz -515.7902oz 
+382.38565oz -616.05743oz -226.88506oz -927.3686oz -957.79126oz -248.27187oz 
-494.08942oz +612.6206oz +763.82574oz -910.44415oz +918.32446oz +741.6609oz 
-982.99774oz +384.98834oz +811.9661oz -366.9446oz -206.87308oz -749.62335oz 
-584.68787oz +920.96454oz -634.9587oz -367.5321oz +993.889oz -637.34845oz 
+80.7764oz +459.12448oz -891.76575oz +774.2643oz -726.5332oz -259.3106oz 
+535.432oz -769.0384oz -817.79395oz +14.19077oz +776.49554oz -702.8932oz 
-739.5622oz -321.06775oz -696.49567oz -704.7113oz -165.17702oz -565.6886oz 
-504.6095oz +172.7311oz +219.42995oz +460.6213oz -764.03235oz -943.08124oz 
-847.31006oz +938.67316oz -263.43845oz -784.0594oz +829.7825oz -905.2569oz 
+99.92888oz -845.06226oz -138.00667oz +603.6106oz -789.8722oz +939.07214oz 
-567.4015oz +596.7781oz +474.04462oz -787.60754oz +842.962oz +620.25574oz 
+533.47577oz -607.04297oz +637.2352oz -809.2123oz -182.40607oz +665.2047oz 
+192.36131oz +54.187042oz +854.7623oz -687.1489oz -487.58496oz -489.17392oz 
-450.5577oz -239.02768oz -143.64516oz +365.99683oz -758.622oz -468.9501oz 
+505.4481oz -818.8827oz +622.06903oz +833.74414oz -594.43024oz -273.1385oz 
-662.90704oz +690.52545oz +872.0175oz -501.83884oz +632.1981oz -881.97986oz 
-5.586935oz +584.4295oz +702.17346oz +694.2652oz +78.33698oz +271.15445oz 
-266.71072oz +816.43915oz -934.47284oz +507.21103oz -66.57861oz +180.31934oz 
-601.113oz +120.54106oz +705.8567oz +809.6814oz -978.3228oz -927.16327oz 
-875.9351oz +57.70227oz +238.68266oz +757.95325oz +853.5015oz +861.5538oz 
-627.795oz -160.77779oz +88.92104oz -893.05383oz +607.13824oz +781.889oz 
+951.41516oz -734.2806oz -530.67316oz -680.4854oz +947.44666oz -457.05652oz 
+296.60742oz -80.34556oz -978.7161oz +235.20839oz -665.7256oz +312.44067oz 
-456.17667oz +868.50903oz +187.6901oz -952.4325oz -336.4727oz -347.20792oz 
-926.7197oz +406.96265oz +397.20956oz +836.05597oz -428.05154oz +452.64005oz 
-317.45984oz +706.7316oz -616.5933oz +481.63174oz -379.91266oz +497.5737oz 
+569.1715oz +457.76453oz -861.0725oz -929.52795oz +351.78207oz -837.04285oz 
+425.91348oz +357.21283oz -363.2499oz +956.48944oz -93.39532oz -284.01172oz 
-876.70306oz -645.2149oz +589.2476oz -820.0966oz +720.2684oz -61.622875oz 
+152.42828oz -212.29071oz +288.39456oz -10.656327oz +111.662605oz -824.6755oz 
-325.20853oz -244.99174oz -798.469oz -198.84842oz -171.31241oz -504.0873oz 
-613.0781oz +72.738266oz -415.42603oz -294.99142oz -309.6509oz +486.88333oz 
-142.2823oz -668.81757oz +817.2025oz +357.07944oz +218.18117oz -496.7922oz 
+162.63783oz -142.30412oz -305.6084oz +999.7812oz +312.30533oz -486.82242oz 
-548.3257oz +535.2019oz +998.4749oz +965.3815oz -118.33824oz +895.22687oz 
-847.14655oz -310.39948oz +66.14582oz +620.1846oz -373.5956oz +750.0557oz 
-165.68394oz -81.06514oz +662.06146oz -336.18762oz -695.3613oz +335.03552oz 
+795.98505oz +390.9011oz -346.5995oz -7.8715262oz +355.20245oz +450.80084oz 
-701.2813oz +707.2127oz -546.49976oz -337.74606oz -969.51447oz -720.54584oz 
-783.93646oz +235.0387oz -929.11584oz +1.8242298oz -785.343oz -897.9499oz 
-258.22385oz -700.6279oz +501.399oz -377.49097oz -702.4439oz -737.77216oz 
-443.69766oz -886.3355oz -767.9343oz -181.26958oz -228.2044oz +685.7986oz 
+881.8379oz +426.55264oz -400.51376oz -122.77879oz +211.46648oz -434.86273oz 
-859.3123oz -195.57094oz +583.6438oz +533.7119oz -444.45355oz -277.4536oz 
-195.61359oz +533.3238oz -506.05032oz -876.9595oz +58.9184oz -162.95932oz 
-520.9922oz +563.7337oz +367.65643oz -81.0345oz -73.29282oz -438.8872oz 
+232.52177oz -962.93567oz +764.6747oz +778.7504oz -472.0345oz +420.43866oz 
+871.79645oz +730.9348oz +402.36703oz +756.63855oz -816.52966oz -191.60692oz 
-817.1732oz -810.2954oz -765.6914oz -242.88292oz -598.82556oz -393.5035oz 
-926.6383oz -779.24835oz -652.4679oz -76.58866oz +355.12906oz +201.91052oz 
+104.28891oz -324.1417oz +341.86075oz -309.98874oz -955.42334oz +236.0927oz 
-694.0862oz -767.44977oz -632.8867oz -397.73355oz +478.71783oz -774.6936oz 
-128.95007oz +592.5941oz -43.324875oz -823.69684oz +670.361oz +382.07895oz 
-381.42957oz -665.6191oz -108.81685oz +805.77014oz +158.50914oz -869.7793oz 
+474.0968oz -706.3034oz -965.1096oz -602.90753oz -381.2591oz +432.72278oz 
-613.4776oz -507.57956oz -233.3088oz +926.22076oz +544.11633oz -808.73895oz 
-410.74393oz -442.1698oz -658.6725oz +27.214584oz -889.3844oz +412.3518oz 
-145.55957oz +929.1387oz +977.89136oz -201.29138oz +114.724655oz +590.1719oz 
+116.38287oz -760.5995oz +107.964165oz -703.44196oz +927.5515oz -435.23346oz 
-801.1953oz -510.10184oz +961.69116oz -425.58008oz +465.0895oz +981.4139oz 
-827.0384oz +659.26715oz +0.47355437oz -131.26598oz -646.8353oz -76.61087oz 
+614.9054oz +588.0262oz +34.519756oz +583.6043oz -456.8303oz +804.6419oz 
+28.448864oz +176.35382oz -773.72394oz -535.8901oz +677.56323oz -990.8695oz 
-410.62857oz +461.6842oz -219.39662oz +282.11572oz -715.4882oz -85.34531oz 
+41.838627oz +586.2283oz -167.68999oz -285.74176oz +870.0556oz +569.8044oz 
+296.21655oz +152.2057oz +869.97687oz +320.17148oz -703.8173oz -981.1311oz 
-609.7517oz +80.54135oz +263.6034oz +563.1605oz -70.58449oz +683.95593oz 
-804.4736oz +139.86626oz -148.3526oz -189.9305oz -851.7766oz -658.8325oz 
+337.4151oz +477.70135oz +239.61716oz -206.04468oz -538.0171oz -799.9832oz 
+661.2106oz +744.49194oz +178.69662oz +551.1436oz -473.69336oz +537.8895oz 
+95.100555oz +753.6997oz -323.79578oz +888.4269oz +856.6149oz -17.04416oz 
-410.78198oz +67.44805oz -482.21692oz -972.30646oz -453.0649oz +567.9701oz 
-736.95386oz -437.25552oz +674.9014oz +57.94654oz +450.45642oz +815.1501oz 
+379.57455oz +663.1815oz -548.8912oz -481.44336oz +925.4687oz +458.80106oz 
-741.76oz +162.24744oz +171.44385oz -298.18768oz +54.951126oz +558.4647oz 
+707.916oz -358.28482oz +651.44977oz -719.49176oz -440.04883oz +30.176912oz 
+631.1129oz -920.4023oz -339.46353oz -33.851723oz -750.9159oz -46.51537oz 
-430.87338oz +886.051oz +257.07587oz -739.2551oz -330.04825oz -100.115906oz 
+270.4595oz +807.2084oz -899.5164oz +746.73303oz -416.68024oz +656.28577oz 
+838.4091oz +254.4879oz -642.29193oz -742.8938oz +272.8549oz -579.13153oz 
+408.48486oz -304.02298oz +663.3287oz +120.46682oz -703.69037oz +868.15875oz 
+595.3637oz -15.760785oz +566.5006oz +300.92163oz +270.03058oz +688.5888oz 
+60.309456oz -389.3422oz -760.5914oz +782.0175oz -891.0805oz -218.67813oz 
+351.73373oz +855.03186oz -109.64947oz +845.6785oz -527.7922oz -471.11362oz 
+589.96564oz -22.202375oz +426.3623oz -557.87665oz -224.68045oz +973.0976oz 
+823.7144oz -166.66548oz +29.48768oz -482.246oz -968.4124oz -11.023906oz 
+597.62286oz -790.6814oz +829.545oz +412.9391oz -595.9275oz -60.686657oz 
+575.97455oz -535.76794oz +243.88422oz +409.77606oz +353.01038oz -32.75187oz 
-967.02997oz -768.4689oz -672.9128oz +490.0262oz -666.1522oz -65.761086oz 
-985.6335oz +293.0304oz -293.67545oz +496.20084oz -246.19978oz +795.22546oz 
-678.64386oz -872.4742oz +545.1472oz +918.0246oz +791.7066oz +317.4076oz 
+118.40848oz -560.8438oz -891.51117oz -799.29266oz +303.0638oz +450.17798oz 
-243.91257oz +264.44055oz +255.35953oz +306.6094oz +355.40283oz +370.8709oz 
+497.4009oz -458.65448oz -912.1686oz +77.04304oz -608.9255oz +282.3551oz 
-866.1821oz -589.5342oz -630.5634oz -95.52105oz -359.73224oz -423.57233oz 
-994.9908oz +385.52933oz -429.80145oz -580.3288oz +52.382053oz -499.587oz 
-683.69574oz +94.87774oz +506.56842oz -176.36351oz -387.3326oz +458.72818oz 
+328.30774oz -547.8992oz -657.5946oz +670.83514oz -962.0725oz -490.69543oz 
+700.1536oz -920.9957oz -892.7625oz +454.8937oz -284.17276oz +159.53746oz 
-888.7473oz -150.44897oz +895.29193oz +57.203346oz -487.64658oz +719.20386oz 
-258.30334oz -109.141846oz -541.2524oz +271.7702oz -170.9233oz -886.90656oz 
+886.0018oz -918.1239oz -840.0663oz -692.3727oz +455.40405oz -670.81946oz 
-162.02776oz +117.47593oz -400.83084oz -849.73oz +637.982oz -263.68097oz 
-37.073174oz -867.22oz -866.201oz -625.0845oz +679.07367oz +522.6561oz 
+802.40106oz +889.0602oz +686.23895oz -185.16258oz +229.62265oz -158.35147oz 
-280.739oz +493.5276oz -129.05066oz -348.51804oz -956.1994oz -452.16663oz 
-893.1804oz -764.64264oz -543.193oz +52.04964oz -572.7367oz +111.20469oz 
-247.93742oz +795.49725oz +598.7507oz +439.02628oz -230.60373oz +753.7532oz 
-671.20264oz +783.19727oz +539.64386oz -36.238907oz -755.63513oz -495.88586oz 
+468.54196oz +800.3962oz -379.14417oz +527.94037oz -651.3963oz -181.02502oz 
-667.1538oz +163.18896oz -463.73834oz +768.0216oz -812.38074oz -959.3432oz 
-544.9943oz +511.42413oz -917.3947oz -899.41205oz +508.99667oz -182.67148oz 
+402.18243oz -7.5324206oz -158.95079oz -770.98193oz -418.1188oz +933.1221oz 
-773.2635oz -443.7573oz +959.7541oz -257.262oz -278.63983oz -949.9198oz 
-615.822oz -525.2138oz +376.8539oz +595.0866oz +150.87494oz +258.97855oz 
+941.6006oz -167.4897oz +358.95334oz -453.80362oz +251.83368oz -443.54596oz 
-880.6947oz -312.54333oz +877.9975oz +151.985oz +925.28894oz -221.77983oz 
-287.55753oz +525.4399oz -88.686165oz +223.61061oz +486.23676oz +818.4077oz 
-709.4629oz +487.00864oz +261.36374oz +420.48624oz +453.75372oz -532.66174oz 
+843.73895oz -443.7921oz -70.65368oz +215.19688oz +54.425053oz -913.4681oz 
+509.49826oz -716.69617oz +252.86816oz +940.1843oz +840.4273oz +55.410748oz 
+652.7556oz +503.54114oz -669.63837oz +863.57825oz -822.01697oz -725.2783oz 
+990.73676oz -438.25092oz +433.37433oz -761.19824oz -663.58765oz +319.04016oz 
-581.8481oz +690.7084oz -962.07715oz +896.6837oz -235.62459oz -32.8896oz 
+882.1883oz -806.34186oz -636.69196oz +767.99713oz -151.79791oz -109.52886oz 
+717.64996oz +993.29926oz +133.6013oz -518.5862oz +851.1007oz -592.1609oz 
+62.570442oz -167.60303oz +498.0262oz +545.2782oz -309.3522oz -683.6912oz 
-571.55853oz -762.97003oz -611.0126oz +562.52014oz -582.54987oz -567.43317oz 
-460.53372oz -102.018295oz +883.34784oz +203.86668oz -96.46915oz +398.1475oz 
-576.1826oz +9.372471oz -784.16437oz +156.65625oz +902.5722oz +118.53794oz 
+329.94846oz +324.7183oz +180.1521oz +834.60706oz -19.703201oz -796.3625oz 
-603.33527oz -45.145752oz +423.2157oz +695.60065oz +474.20917oz +311.10873oz 
-755.7212oz +991.1595oz +680.0758oz -508.21286oz -738.04193oz +446.7224oz 
+484.04102oz +149.52426oz -146.72849oz -160.58827oz -945.0594oz +768.165oz 
-495.60974oz +198.65256oz -533.84094oz -989.04553oz +540.15796oz -74.61773oz 
-761.026oz +168.52942oz +546.0749oz +81.338776oz +884.0341oz -730.93634oz 
-513.5053oz +727.21027oz +8.993921oz +580.7896oz +798.2844oz +781.50116oz 
-154.1595oz +219.71509oz +821.62506oz -682.5437oz -91.22003oz +446.89636oz 
-809.65106oz +312.6824oz -30.908504oz -771.9942oz -754.18304oz +393.88965oz 
+469.31625oz +919.4349oz +36.183285oz -7.953993oz -761.3192oz -52.975048oz 
-403.2649oz +995.1476oz -237.5222oz +599.44824oz -242.67267oz -235.27873oz 
-931.1275oz -800.6oz +341.1411oz +65.035866oz -231.13416oz -371.91742oz 
+573.03644oz -335.5296oz +28.273912oz +897.36oz -208.18814oz -863.9385oz 
+170.09033oz -838.8969oz +780.817oz -283.16492oz +291.56714oz +289.75864oz 
+710.9657oz -543.40814oz +337.71228oz -850.3072oz -119.83745oz +569.5593oz 
+344.50354oz +255.43283oz +530.4505oz +828.326oz +294.60254oz -632.383oz 
+395.01312oz -808.99164oz -114.24284oz -517.92914oz +640.4262oz -671.7169oz 
+127.69869oz -13.778497oz -673.31976oz -567.2885oz -535.7405oz +709.1367oz 
+536.0293oz -382.22186oz -734.4836oz +249.3277oz -154.91797oz +913.1245oz 
-541.0358oz -679.37646oz +872.45184oz +724.22565oz +642.3515oz +941.4621oz 
-704.43335oz +191.97845oz +833.69653oz +155.1463oz -13.799832oz -490.6416oz 
-863.1315oz +559.28406oz -542.3935oz +522.7458oz +948.41974oz +244.52286oz 
+992.1083oz +48.352127oz -282.76547oz +55.296417oz -596.82104oz +517.0077oz 
+95.78888oz +290.2193oz +376.51215oz -356.3058oz -86.14421oz -79.788704oz 
-14.982774oz -720.9558oz -292.18723oz -570.2995oz +552.57404oz -956.27026oz 
+717.0983oz +292.8792oz +335.29535oz +279.9738oz +274.86728oz +346.54834oz 
+911.7675oz -436.2419oz -873.54614oz +274.21347oz +819.38684oz +325.8746oz 
-702.17664oz +760.4982oz +451.1172oz -866.5114oz +37.797684oz -530.31915oz 
+444.315oz -586.7946oz -138.94019oz +77.11219oz -282.9949oz +708.3858oz 
-42.014683oz -99.616776oz -54.9412oz +719.7434oz -326.9983oz -776.12274oz 
+555.0719oz +695.5663oz -168.8273oz +255.08731oz +176.46132oz +865.8102oz 
+240.90149oz -991.0275oz +280.42773oz +188.1831oz -287.10663oz +804.59534oz 
-987.0922oz -928.02625oz +428.76126oz +795.74054oz +577.81494oz +499.48602oz 
-522.8938oz -488.86887oz -950.915oz -71.884oz -138.25706oz -838.9004oz 
-822.0803oz -695.1911oz -965.48505oz +977.13556oz -610.87396oz -948.51166oz 
-727.7998oz -825.83417oz +204.74228oz +365.48416oz -908.6733oz -960.41455oz 
+41.932472oz +140.50484oz +862.85126oz -348.1779oz -204.72447oz +869.68oz 
-127.1456oz +842.46533oz -464.38446oz +330.41397oz -997.4001oz -561.1531oz 
-469.24567oz +553.53815oz +688.0376oz +528.3922oz +517.32263oz +691.8881oz 
+640.5936oz +208.49957oz +604.86597oz +439.2347oz -797.6432oz +810.90546oz 
+692.2626oz -3.4750636oz -908.52655oz +495.06485oz -378.6891oz -887.9906oz 
-183.28127oz -854.2384oz -426.92334oz -985.0775oz -861.18524oz +307.04913oz 
-829.7212oz -735.35614oz +510.31848oz -275.72113oz -359.1643oz -357.06586oz 
-124.54869oz -279.9071oz +790.38556oz -399.15137oz -334.34793oz +325.01oz 
+241.07799oz +122.046646oz +297.84555oz +213.90588oz +318.19382oz -460.06317oz 
+88.52458oz +660.97375oz +13.239474oz +569.2879oz -645.9674oz -337.3389oz 
+537.57336oz +214.89851oz +606.0567oz +226.23569oz +539.112oz -501.8004oz 
-577.0386oz -917.3964oz -391.85107oz -702.4938oz +677.8535oz +719.3722oz 
-499.60834oz +186.07501oz +405.14172oz +718.69214oz +805.393oz -702.2804oz 
+145.32909oz -164.76749oz +947.8094oz +524.47675oz +898.19995oz +809.4461oz 
-755.90063oz +205.50684oz -28.362719oz -80.12456oz +23.837996oz +950.2946oz 
-111.01521oz +215.32353oz -756.86334oz -859.1169oz -188.4152oz +741.63245oz 
+329.8896oz +545.44806oz -3.4629302oz -920.9306oz +250.16689oz -882.28375oz 
+26.801699oz -46.789707oz -465.4191oz +880.8494oz +343.8427oz +718.9657oz 
-408.8585oz -955.6011oz +718.12054oz -474.88412oz +222.48367oz +79.42291oz 
-397.38547oz +407.0275oz +850.06775oz -582.92975oz -478.83862oz -645.1288oz 
+941.2423oz -601.7793oz +899.9168oz +832.07904oz +758.0842oz +425.90094oz 
-371.03256oz -972.45416oz +525.611oz -254.54749oz +816.67645oz -282.56793oz 
-917.59106oz -111.07569oz +141.28674oz +920.9568oz -619.07495oz -921.3621oz 
+386.29428oz +728.2032oz -157.05461oz -9.760595oz -594.7471oz +355.00378oz 
-440.65598oz -516.5072oz +949.9223oz +407.38797oz +702.2711oz +490.47955oz 
-4.331148oz +487.9941oz -781.0374oz +661.2161oz -65.52294oz -262.3087oz 
-940.06854oz +144.10214oz -55.094913oz -928.7755oz -658.8443oz +582.6282oz 
+407.31372oz +721.68036oz -92.16553oz +481.62793oz +823.7551oz +325.7182oz 
+137.08008oz -735.40094oz -950.368oz -331.14835oz +299.18622oz -604.6272oz 
-293.36856oz -108.44458oz +799.7198oz -645.979oz -940.3721oz +731.346oz 
-614.8314oz -348.3377oz +903.16693oz -827.2151oz +388.45938oz +479.51932oz 
-148.53857oz -483.60898oz -410.20584oz +397.41815oz +633.54865oz +589.9706oz 
-99.62091oz -829.4721oz -911.676oz +243.34543oz +688.30206oz +874.3574oz 
-126.22615oz +97.03077oz -41.214706oz +229.81874oz +457.41446oz -781.0628oz 
-808.64014oz -900.5403oz -339.53033oz +773.449oz +350.15714oz -889.96533oz 
-14.587969oz +351.0506oz -122.06374oz +629.96924oz -238.87036oz +499.02307oz 
+469.64493oz -152.29288oz -208.77252oz +907.7193oz +15.692828oz -255.64278oz 
-22.350285oz -435.9627oz +86.68572oz +172.36359oz +242.9809oz -669.5961oz 
-868.0319oz +488.58994oz -381.54175oz -454.21292oz +229.78484oz +321.7833oz 
+363.5133oz -530.9764oz +414.23535oz +9.5606165oz -297.41284oz +654.4338oz 
-26.788229oz +813.7204oz -110.96463oz -821.23126oz +21.528072oz -393.37292oz 
-871.4135oz -488.6362oz -622.88184oz +51.08083oz -856.38763oz +911.7722oz 
+374.78333oz +5.916022oz +691.7168oz +978.4746oz +758.747oz -197.33942oz 
+122.6126oz -170.6711oz -72.25606oz -373.8097oz +234.61664oz +531.195oz 
+508.87234oz +470.0273oz -190.72313oz +764.9368oz -631.4731oz -526.72003oz 
+801.08185oz +853.24oz -680.0217oz -656.87604oz +491.68826oz +810.44824oz 
+405.27884oz +812.33124oz +488.46628oz +461.5095oz -369.85858oz -354.61713oz 
-283.1508oz +369.54337oz +908.03827oz +683.97406oz +697.3753oz -292.2783oz 
+185.72624oz -430.43884oz +111.37176oz -796.2645oz -51.99497oz -960.90985oz 
-673.6884oz +907.7692oz -623.58496oz -206.09851oz -558.3315oz -929.26oz 
+793.7865oz -61.27155oz +585.7384oz -800.3831oz +107.10475oz -864.6914oz 
-773.9865oz -632.3422oz -691.1152oz -707.6604oz +636.6463oz +294.58475oz 
-186.91472oz +580.07556oz -293.6828oz +182.70135oz -869.57574oz -605.39935oz 
-711.8131oz +546.445oz -400.00858oz -868.95355oz +640.7256oz -6.776079oz 
-899.63885oz -593.4422oz -61.567226oz +140.83942oz -289.3064oz +665.6095oz 
-214.10509oz +263.77997oz -83.79105oz -767.93945oz +518.9686oz +786.30286oz 
+83.37268oz -619.30316oz +961.37854oz -776.88446oz -653.8308oz +78.46022oz 
-752.7689oz -607.5406oz +536.2905oz -114.320114oz -336.70856oz -812.058oz 
-378.32098oz -896.8704oz +55.52787oz +535.59546oz +427.6923oz -512.6777oz 
-44.05773oz -204.56114oz -80.197556oz -58.86708oz +166.88615oz +295.67142oz 
-222.94614oz +119.48774oz -65.53947oz -333.09863oz +564.5343oz -878.1691oz 
+631.99414oz +492.61322oz -393.49933oz +370.9755oz +474.92505oz -441.6268oz 
+456.4641oz -633.36426oz -195.09729oz +294.04242oz -897.3773oz +745.1544oz 
+536.30695oz -808.81793oz +449.25635oz +27.412083oz +728.2775oz -211.14958oz 
+319.83914oz +895.1578oz +587.9184oz +265.1806oz -462.55045oz -119.8037oz 
-195.35092oz +477.14285oz -174.18964oz +505.2258oz +211.10931oz -557.8362oz 
+210.74585oz +231.37721oz +150.92166oz -523.3526oz +862.7469oz +369.34985oz 
-184.47823oz +62.951714oz +681.5481oz -321.78967oz +274.59232oz -52.99248oz 
+797.96704oz -192.5723oz +723.1608oz +345.82922oz -24.671278oz -339.64526oz 
+440.3302oz -212.57663oz +183.7243oz -614.9428oz -503.27423oz +68.65089oz 
-350.69666oz +45.279892oz -820.99005oz -360.99307oz -956.7481oz +958.13104oz 
+971.5182oz +745.8806oz +940.0875oz -806.20154oz -527.9933oz -936.23364oz 
+388.216oz +194.69522oz -439.93176oz -847.3221oz +362.36038oz +865.18744oz 
-286.16263oz +919.7799oz -845.5028oz -640.0073oz +465.80707oz -748.8327oz 
-5.412376oz +581.0372oz -643.71423oz +398.64514oz +214.08624oz +866.83435oz 
+16.758476oz -30.693996oz +515.0048oz -141.98215oz +217.40486oz +725.0733oz 
+479.6088oz -342.57596oz -920.9487oz -623.6383oz +644.4032oz +251.75108oz 
+472.83612oz -773.8934oz +970.0955oz -289.15808oz -102.47085oz -302.53156oz 
-14.173265oz +288.29218oz +539.9146oz -797.53046oz +758.32837oz -265.58313oz 
-101.88656oz -27.712364oz +282.1334oz -435.15115oz +563.4683oz +378.6731oz 
-724.3769oz -973.1362oz +381.9208oz -633.98755oz -223.46332oz -285.50568oz 
-89.0193oz -980.5967oz -778.28467oz -783.24774oz +918.3126oz -367.28345oz 
+220.96898oz +418.85608oz -983.7129oz -595.14307oz -742.9127oz +488.0122oz 
-575.8222oz -768.95416oz -665.5036oz +450.37222oz -392.40244oz -988.357oz 
+396.9385oz +773.3632oz +769.3942oz +407.7453oz +766.54517oz +52.896736oz 
-228.89131oz +43.777687oz -178.01141oz -914.9047oz +910.4774oz -959.4146oz 
+272.93008oz +451.60443oz -702.3302oz +703.38794oz -46.064713oz -196.39873oz 
+138.50046oz -134.00842oz +603.743oz -891.3179oz -378.77118oz -6.218397oz 
+6.7834754oz -550.909oz +837.50397oz +950.7946oz -889.36285oz +576.4795oz 
+277.87802oz +724.6089oz +795.2288oz -924.6011oz -437.92886oz +860.8516oz 
+422.66568oz +583.77966oz +504.79245oz +98.12542oz +219.61856oz -863.19867oz 
+3.5609927oz +217.31398oz +20.38267oz +247.44093oz -917.15704oz -165.13379oz 
+665.2637oz +821.09607oz -103.6319oz +593.2737oz -794.6155oz -517.1591oz 
-327.2942oz +192.02922oz +258.66177oz -693.12714oz -470.0759oz -447.33817oz 
+834.50726oz +788.6998oz +739.54095oz +700.12256oz -191.74586oz +68.990135oz 
+939.9435oz -636.8446oz -298.07007oz +707.1518oz -122.74108oz -590.1821oz 
-706.2903oz +710.3292oz -182.9708oz -278.7299oz -414.1683oz +442.83652oz 
-217.8922oz -864.63275oz -238.47229oz +750.4719oz -714.3056oz +458.05762oz 
-894.659oz +939.8735oz +880.9501oz +447.40988oz +223.59004oz +116.822784oz 
+692.38916oz +284.20062oz +256.68762oz +637.4024oz +460.78876oz -601.47107oz 
-60.936897oz -675.91376oz -1.994852oz +794.6804oz +555.14056oz +163.46138oz 
-712.3169oz -443.96304oz -738.83203oz +601.1101oz +122.42246oz -206.6622oz 
+25.253864oz -501.52118oz +744.7506oz -59.04508oz -619.80707oz +462.97333oz 
-280.84915oz +16.106825oz +135.37805oz +129.67601oz +505.04248oz +708.3689oz 
-885.94916oz +542.27966oz -390.83652oz +444.57837oz +549.89923oz +632.4905oz 
+296.4665oz -639.2145oz -144.40024oz -865.6952oz -275.994oz +733.7084oz 
+502.31653oz +285.50262oz +832.35974oz -990.2826oz +693.0126oz +464.10742oz 
-678.7983oz -787.31635oz +78.475784oz -112.38352oz +325.02014oz -295.14294oz 
+946.16046oz -353.61237oz -554.5693oz -661.1859oz +909.95935oz +914.7528oz 
-109.76013oz -83.339134oz +520.7084oz -739.15875oz -150.60217oz +400.49832oz 
-777.6322oz -774.6507oz +304.11713oz +79.14951oz -482.135oz +940.8478oz 
+370.45575oz +724.92096oz -625.3445oz -529.6661oz -2.2199135oz -498.00458oz 
-250.81407oz +542.88965oz -923.3969oz +61.353218oz -483.79016oz -720.72095oz 
-504.3113oz -940.5603oz -668.4508oz +265.21597oz +759.0016oz -424.32758oz 
+804.5216oz +512.5113oz -81.427086oz +384.42786oz -724.67523oz +57.748585oz 
+286.91183oz +644.068oz +704.12115oz +86.60356oz +775.2313oz -773.5598oz 
+443.7912oz -917.3246oz -881.749oz -442.20364oz -618.52814oz -7.188375oz 
+733.00775oz -705.2921oz +431.68204oz +927.27783oz -173.1836oz -855.1394oz 
-867.5227oz -59.489525oz +577.8074oz +715.0428oz -582.8723oz +19.676056oz 
-621.16077oz -505.08258oz +629.3659oz -60.829887oz +313.75266oz -658.66656oz 
-447.74576oz -960.21515oz +876.2827oz +218.72551oz -825.5954oz +144.35323oz 
+266.49756oz -692.46576oz +759.9197oz -55.76885oz -425.34674oz -493.5849oz 
-415.97806oz -15.402437oz -558.84393oz -350.85767oz +623.77545oz -84.595314oz 
-22.040068oz +311.9971oz +603.61884oz -680.55396oz -621.51447oz +221.69815oz 
+862.145oz -949.19946oz -402.79047oz -802.7697oz -450.22525oz -149.3084oz 
-239.08144oz -719.26105oz +24.154299oz +551.85175oz +787.77356oz +250.48947oz 
-401.5288oz -608.4375oz -631.05194oz +454.8745oz +553.2223oz -392.76358oz 
+667.0758oz +952.4863oz +222.86232oz -568.98737oz +68.10942oz +705.21295oz 
+615.2165oz -390.91803oz -372.01456oz -423.45386oz +844.89343oz +485.9377oz 
-523.51135oz -478.24564oz +86.764854oz -427.55795oz -931.6134oz +447.72586oz 
+619.51483oz -350.51773oz +859.6432oz +676.8416oz +203.72357oz +112.32936oz 
+714.23456oz -479.20908oz +485.89oz +755.178oz -49.728428oz -860.0302oz 
+369.80157oz +272.08176oz -354.3672oz +888.9726oz -546.6558oz +931.2184oz 
+934.6954oz -101.91901oz -625.34094oz +662.3243oz -464.5718oz +560.493oz 
-554.28125oz +259.07288oz +15.199625oz +448.26654oz -276.2537oz -401.3383oz 
+632.5812oz +332.5559oz +807.5821oz +751.25oz +778.803oz -470.71252oz 
+183.1147oz -626.94617oz -203.55756oz -789.81415oz +958.39215oz +7.9298034oz 
+62.308743oz -418.66376oz -210.41113oz -875.93634oz -347.50577oz -901.00146oz 
-228.39081oz +145.21695oz -949.2533oz +468.83627oz +335.94785oz -686.1448oz 
+911.843oz -4.8032856oz +536.0864oz -196.05032oz +702.5535oz -572.4538oz 
-920.40924oz -921.1921oz -559.1245oz -643.383oz +33.95633oz +483.76852oz 
+232.3111oz +400.10272oz -637.07715oz +317.87787oz +689.92566oz +743.565oz 
+555.74304oz -468.33194oz -598.7723oz -884.24274oz +561.7053oz +756.2303oz 
-650.8805oz +645.6737oz -473.90646oz +565.20074oz -50.444798oz +859.3744oz 
+922.5496oz -752.2127oz +727.876oz +480.02914oz +467.23282oz +436.86954oz 
+97.37024oz +299.8623oz +10.555075oz +673.08606oz -424.40305oz +391.0981oz 
+698.59924oz -257.05777oz -119.55318oz -655.4152oz +749.69885oz -175.42766oz 
+525.0637oz -109.302536oz +902.8951oz -447.55698oz +10.54629oz -784.2217oz 
-427.4894oz -365.80637oz -444.23428oz -370.48322oz +885.09924oz -387.73358oz 
-356.1919oz -983.7424oz -85.62202oz +184.11374oz +359.8849oz -683.02045oz 
+928.514oz -596.68866oz -648.51953oz -619.15875oz +70.790695oz -509.55164oz 
+632.55554oz -942.6104oz +613.1545oz +888.0734oz -34.800022oz -849.4775oz 
+245.65604oz +489.27615oz +9.48794oz -394.6982oz -544.29535oz +997.56116oz 
+101.755684oz -951.2919oz -359.96957oz +589.6973oz +113.91407oz +444.56686oz 
+491.1727oz -182.97551oz -194.92671oz +740.19855oz -81.854324oz +870.4359oz 
-719.50055oz -815.08276oz -435.84305oz +297.07468oz +773.1939oz -589.8715oz 
+189.24141oz -980.9354oz -309.9496oz -552.09717oz +32.198oz -832.9924oz 
+298.4577oz +548.79126oz -421.4633oz +379.73135oz +423.75604oz -377.50415oz 
+975.1356oz +442.3346oz +160.47319oz +54.631474oz +491.00287oz -276.37598oz 
+284.1208oz -889.9547oz +779.88745oz +425.93274oz -136.8418oz -746.30066oz 
+755.39905oz +796.0198oz +214.02016oz -113.22715oz -471.50275oz -697.2531oz 
-888.1588oz -873.64087oz +49.308483oz -866.6488oz -336.43195oz +892.2536oz 
-684.4877oz +718.4627oz -988.31757oz +804.7826oz -176.7237oz +328.9788oz 
+59.717354oz -636.80286oz -672.60205oz -909.1509oz +989.96924oz -131.15543oz 
+563.3472oz -769.0049oz -848.1594oz +912.81976oz -728.81134oz -27.707653oz 
-25.139795oz +870.1555oz +569.12213oz -573.2082oz +777.65753oz +381.42023oz 
-515.39545oz -25.358276oz -441.00232oz -265.46906oz -960.919oz -706.41815oz 
+376.57828oz -585.543oz -804.2137oz +872.85364oz -970.80615oz +685.0519oz 
-45.37859oz +712.33136oz -251.76256oz -84.25759oz +127.125755oz +859.8174oz 
-939.9621oz +116.765495oz -961.9114oz -436.6867oz -999.68884oz +434.7282oz 
+836.5692oz -866.7489oz -7.2836947oz +761.6695oz -635.85297oz +973.0967oz 
-902.7929oz +521.8342oz -76.29323oz +109.6831oz +941.3852oz -224.9699oz 
+891.77594oz +331.53476oz +910.9433oz -735.4469oz +162.24821oz -857.5057oz 
-932.2354oz +804.6237oz +226.95775oz +329.4794oz +408.07397oz +495.36206oz 
-873.63226oz -621.9252oz -937.8676oz +377.60025oz -745.005oz +205.71394oz 
+263.9721oz +623.88916oz -154.0932oz -320.1013oz +566.2467oz +383.7982oz 
+749.6342oz -456.78296oz +671.22296oz -66.09694oz +723.08765oz -909.92926oz 
-992.29114oz +407.6191oz +498.6082oz +396.10492oz -267.31073oz +457.71475oz 
+97.39565oz +997.98035oz -410.05228oz -857.19714oz +617.82935oz +935.7407oz 
+41.87533oz +40.69055oz -522.7917oz +920.099oz -520.0497oz -241.28506oz 
+675.58875oz -90.81907oz -529.1261oz -426.40497oz +315.87244oz -794.6558oz 
-551.7623oz +543.79645oz +416.972oz -706.61743oz -785.41113oz -706.5417oz 
-116.0401oz -48.457123oz -321.27637oz +196.00429oz +158.42047oz +908.2998oz 
-651.94324oz +411.61404oz +547.64246oz -915.31067oz -824.08923oz -146.39552oz 
-842.4498oz -773.31067oz -802.68195oz +817.14795oz +792.269oz +407.2473oz 
-863.06964oz +528.1822oz -252.52397oz -726.4245oz +77.37177oz +97.52088oz 
-571.20325oz +258.39957oz -211.57425oz +424.4686oz -888.0857oz -157.45268oz 
-599.73706oz +827.45734oz -38.031372oz +341.53568oz -811.7201oz -231.07483oz 
+999.7434oz -761.60565oz +180.83258oz -331.18042oz -81.407295oz -57.25048oz 
-507.81384oz -117.016464oz -284.61417oz +102.511826oz -507.5505oz -379.21973oz 
-537.97363oz -195.81229oz -814.9368oz +82.64061oz -741.82294oz +897.8927oz 
-616.2842oz +732.87537oz -815.439oz +771.666oz +222.68646oz +115.41805oz 
-188.1582oz +527.894oz -151.74713oz -36.33842oz +425.81204oz +330.5927oz 
+534.0741oz +943.39185oz +933.8835oz +266.07343oz -910.9494oz +556.4676oz 
-928.7909oz -229.52513oz -739.579oz +886.2819oz -118.70564oz +733.0444oz 
-172.3294oz +270.22186oz -785.30963oz -389.01968oz +926.3581oz +304.24622oz 
-207.89896oz -72.77582oz -310.04214oz +799.7498oz +621.24036oz -18.384676oz 
+722.6132oz -144.29774oz +148.58577oz +351.5489oz +193.404oz -695.13495oz 
+401.25226oz -813.4646oz +777.1131oz -84.37837oz -686.17316oz +679.5692oz 
-871.4935oz +564.79724oz -12.826146oz -127.080956oz -773.8727oz -775.08813oz 
-340.94592oz +555.23584oz +42.908344oz +553.5509oz -760.4257oz -612.1291oz 
-481.98828oz -679.0716oz +544.81604oz +932.0662oz +810.6788oz +668.31885oz 
+269.82498oz +837.3313oz +340.62897oz -8.059861oz +438.22797oz -508.27744oz 
+222.33707oz +451.50256oz +302.59183oz -375.64648oz -79.18432oz +257.5692oz 
+827.2206oz -739.024oz -95.143585oz +502.0092oz -980.728oz +865.3356oz 
-872.56836oz -839.25574oz -800.645oz -71.291306oz +626.4686oz +343.93405oz 
-921.46533oz +543.68365oz -531.6798oz -310.9263oz +507.5391oz +901.44604oz 
-289.33093oz -142.89993oz -782.21765oz -753.37787oz -229.01848oz +704.2059oz 
+594.6578oz -755.44214oz -513.09204oz +770.05237oz +715.6902oz +921.5422oz 
+259.45795oz -449.86105oz -804.1599oz +191.68361oz -649.3074oz -713.71136oz 
-235.14375oz -511.42783oz -336.17465oz -400.77957oz +231.45132oz -926.5432oz 
+722.7331oz -338.67896oz +989.8164oz -446.76028oz -921.733oz +452.60657oz 
-743.18396oz +682.5374oz +467.48965oz -993.20386oz -950.5004oz +508.74246oz 
-94.32673oz +262.0366oz +55.41156oz -259.15787oz -148.38123oz +463.6012oz 
+505.2763oz +205.71416oz +449.17688oz -562.76227oz +971.90125oz +326.35895oz 
+667.3715oz +276.5296oz -965.4025oz -615.4676oz -535.08545oz +579.0789oz 
+282.6017oz -440.7014oz +455.21597oz -348.92392oz -981.3615oz +700.2196oz 
+326.14578oz +37.14554oz +822.2674oz +784.1524oz +648.24994oz +485.58423oz 
-369.06226oz -594.23944oz -228.60901oz +273.90216oz -189.23904oz -125.54207oz 
-50.33346oz +224.42123oz -846.1989oz -364.1336oz -122.90668oz +943.6432oz 
-624.3804oz +504.6758oz -379.95187oz +529.35803oz +178.76573oz -741.78613oz 
+940.8298oz +822.24725oz +550.1713oz -139.10321oz +302.47308oz -830.88776oz 
+237.7279oz +329.95587oz -277.86392oz -209.06314oz +269.95697oz -53.54301oz 
-747.5608oz +914.2879oz +465.84943oz -780.52936oz -540.6808oz +426.452oz 
-327.35336oz -931.9645oz +11.744017oz +155.49048oz +254.67636oz +445.43042oz 
+129.78577oz -916.9859oz -25.809174oz -692.32495oz +146.14314oz -604.6087oz 
-731.67694oz -0.18582709oz +157.32213oz -438.3025oz -608.32367oz -283.9635oz 
+129.35175oz +417.11993oz -457.53754oz +540.1471oz -200.03096oz +855.6161oz 
+597.3211oz -207.65125oz +325.4751oz +132.70477oz +533.6153oz +649.3689oz 
+587.3678oz -31.88484oz -794.681oz +258.2974oz +727.3247oz -301.74228oz 
-619.5465oz -942.1432oz -724.77527oz -315.63422oz -441.92523oz -990.31195oz 
+484.76904oz -959.4617oz +361.01175oz +577.1902oz -952.11206oz +126.436714oz 
-40.56079oz +405.62442oz +218.24074oz -447.75037oz -727.6568oz +244.50494oz 
-437.23813oz -138.04796oz -332.57916oz +364.35895oz +617.39996oz +84.61771oz 
-761.1702oz -124.86093oz +604.7561oz +559.1988oz +941.1119oz +218.1655oz 
+824.9538oz -181.31566oz -233.51692oz -321.96915oz +599.90906oz +12.043932oz 
+171.24208oz +166.20752oz +105.6323oz +907.1153oz -715.328oz +267.29388oz 
-287.63452oz -508.26648oz +470.97293oz -833.80566oz -300.3204oz -501.73956oz 
-554.4469oz -597.5247oz +286.77444oz +22.83914oz -52.35138oz +573.738oz 
+565.3463oz +335.45273oz -264.63193oz -4.7045846oz +539.44196oz +165.44128oz 
+172.74915oz -990.1959oz -896.92615oz +316.8052oz -824.4148oz -559.0143oz 
+915.5438oz -449.53256oz -576.2992oz +185.39716oz +940.7647oz +148.03569oz 
+386.11554oz -4.2129927oz +352.4596oz -659.0826oz +595.4888oz +228.85437oz 
+586.81256oz +928.1287oz -895.01355oz +525.73553oz -29.876673oz +812.9568oz 
+412.90884oz +349.30008oz -849.1792oz -603.5289oz +118.675095oz -491.44513oz 
+79.781845oz -226.95895oz +983.15955oz -349.2682oz -531.2031oz +766.51105oz 
+586.437oz +665.04315oz +331.6089oz +173.52945oz -114.91174oz -742.33136oz 
+175.67705oz +301.2073oz +939.04645oz -392.13458oz +592.5427oz -639.10004oz 
-213.12538oz +112.99501oz -800.2304oz -377.28946oz +188.45709oz -258.95007oz 
+962.9794oz -679.1049oz +181.42355oz +199.24701oz -917.8676oz -291.30826oz 
+387.78156oz +723.72406oz -687.1426oz -870.6479oz -984.623oz +197.7644oz 
+342.66245oz -655.6889oz -211.39995oz -220.72917oz -38.85646oz +362.82578oz 
-371.421oz -791.77563oz +280.609oz -435.3825oz +945.2249oz -236.96696oz 
-742.4745oz -24.708416oz -257.23825oz -401.57962oz -205.62897oz +332.17398oz 
-387.12265oz +861.51483oz -428.96472oz -190.97438oz +267.21832oz -157.72041oz 
-20.734566oz +16.646126oz -157.49031oz +307.52902oz +627.1511oz +505.20334oz 
+939.38293oz -96.81897oz -4.3484664oz +707.80005oz +919.9897oz -906.90436oz 
-790.1114oz +360.82452oz -87.94395oz -80.06032oz +41.779404oz +600.3318oz 
-12.437208oz +77.5897oz +856.7309oz -439.72137oz -826.7712oz -934.3376oz 
+641.85443oz +639.5651oz +987.8498oz -763.5599oz -848.4129oz +848.4928oz 
+753.0169oz +316.0519oz -238.70708oz -144.04068oz +565.64746oz -847.4439oz 
-0.944839oz -352.37003oz -790.8961oz +797.5688oz +278.72202oz +775.7613oz 
-493.012oz -35.80945oz -931.5214oz -206.79042oz -195.62357oz +676.33075oz 
-592.636oz -358.0937oz -816.40173oz +717.10345oz +340.92307oz +86.62702oz 
+217.50644oz -6.6258173oz -552.7947oz -41.326283oz +63.22277oz -292.24902oz 
+750.85156oz -613.07465oz -926.194oz -354.013oz +515.5661oz +315.88327oz 
-833.65625oz -477.8987oz -776.4212oz +978.19196oz +695.08276oz +772.40326oz 
-48.91047oz -373.19507oz +302.64218oz +82.34381oz -433.80682oz -167.10019oz 
-845.8786oz +503.79712oz -445.1055oz -314.2248oz +132.01912oz +754.08014oz 
-983.04736oz +277.83774oz -953.3145oz +900.67865oz -18.62898oz +705.65137oz 
+292.82056oz +203.02983oz -806.0063oz -438.87112oz -310.02493oz -71.06521oz 
+689.1968oz -983.70825oz -297.72708oz +394.41974oz +819.4881oz +824.2623oz 
+51.576305oz +746.21405oz -349.9576oz -205.67929oz +343.67514oz -215.31558oz 
+923.51086oz -266.4922oz -441.6538oz -870.98474oz +520.84375oz +649.0498oz 
+864.622oz +113.81281oz +984.7355oz -966.9402oz +817.4045oz -416.85773oz 
+787.07825oz +758.3149oz -994.4666oz -210.88348oz -855.05035oz -804.0204oz 
+694.9362oz +917.6099oz +522.8381oz -939.4432oz +440.1274oz +384.8794oz 
-925.3134oz -738.9738oz +534.9737oz -227.6455oz +400.0738oz -701.99756oz 
+264.77557oz +828.6915oz +714.24945oz +819.3167oz +668.66974oz +2.9836388oz 
+182.48552oz -648.91144oz -81.22516oz -579.5658oz -992.5043oz -279.9454oz 
-883.57355oz +404.90237oz +304.6548oz -813.9219oz -155.47917oz +521.5748oz 
+941.85486oz -241.89737oz -169.75505oz -526.2386oz +736.33295oz +846.65845oz 
-920.4319oz +360.74628oz +849.57556oz +508.7683oz -126.08517oz +40.3442oz 
-631.88586oz -545.3889oz -399.72766oz -72.84715oz +837.96124oz +960.78577oz 
+526.6728oz +572.69904oz +264.89456oz +237.4205oz -41.775604oz +323.82452oz 
-129.00609oz +46.5387oz +547.4576oz -295.17917oz +747.9125oz +507.15802oz 
+463.92093oz -362.9025oz -344.23853oz +872.3637oz +152.9596oz +242.98238oz 
-37.378563oz +771.81775oz +606.7723oz +888.33527oz -339.71304oz -389.38705oz 
+143.18445oz +854.2093oz -723.6872oz -204.7981oz -798.6852oz -385.81665oz 
-76.15771oz +178.22327oz +360.68524oz +232.10083oz +106.41368oz +506.7059oz 
+230.40236oz +439.54572oz -24.278202oz -331.32977oz +557.7806oz +629.9321oz 
-54.696587oz -24.03948oz -339.8494oz +515.9487oz +605.21796oz +933.018oz 
+423.9288oz -658.5627oz +152.77586oz +715.5277oz -607.0874oz -720.0573oz 
+166.17467oz -637.12067oz +273.25854oz +716.6423oz +630.68756oz +466.12527oz 
+259.42175oz +24.542828oz -991.173oz -842.3149oz -892.25543oz +143.47409oz 
+580.1147oz +248.66454oz -386.66666oz +471.40714oz +846.99335oz -965.10254oz 
-47.605103oz -594.5329oz -955.39404oz +633.1631oz +966.5665oz -846.3295oz 
+564.25745oz -310.44562oz +154.19264oz -139.64058oz +859.67993oz +143.78798oz 
-300.37338oz -325.66962oz +153.6695oz -40.058895oz -603.2579oz +583.79724oz 
+616.2634oz +963.4763oz -358.58038oz +596.1273oz +957.41394oz +738.3582oz 
-250.7073oz -510.66864oz -125.048294oz +486.2114oz -536.81177oz -947.0579oz 
-335.7094oz +76.06528oz +565.582oz +548.73035oz -4.1831985oz +216.95607oz 
-321.86905oz -835.44446oz -388.51907oz +71.46867oz -938.6818oz -360.0673oz 
+16.849802oz +519.24146oz +367.9333oz -423.5256oz +212.41687oz +449.341oz 
+651.3463oz -851.8305oz -283.20755oz +710.41254oz +482.92386oz +589.0803oz 
+192.61034oz +597.5125oz -4.390894oz -110.34946oz -777.4944oz +4.5296326oz 
+25.013245oz +908.3683oz +830.1196oz +621.1006oz -107.200386oz +557.9009oz 
-610.2839oz -802.92645oz +209.29826oz +111.72695oz -604.1126oz -994.3962oz 
-826.978oz +832.13385oz -595.8985oz -832.42395oz -824.62744oz -511.82486oz 
+369.3963oz -310.40552oz -398.1509oz -888.151oz +604.9794oz -631.20087oz 
-860.5845oz -904.5708oz +789.06464oz -628.0489oz +191.932oz +823.2462oz 
-202.21175oz -882.3203oz +544.6286oz -442.67957oz -302.3025oz +917.01544oz 
+146.03806oz +924.29834oz -69.20748oz -94.912605oz -289.39008oz +981.89404oz 
-127.345695oz -100.27395oz -354.56372oz +437.82123oz -712.54315oz -133.01434oz 
+50.123154oz -399.86313oz +799.59766oz -194.24019oz -318.0123oz -562.67004oz 
+956.9547oz -92.06383oz +592.31433oz -387.6764oz -744.90204oz -46.60039oz 
+353.4824oz -165.40372oz +723.6881oz -23.05268oz -169.44756oz -214.0545oz 
-387.9716oz -171.791oz +665.0109oz +718.3041oz +594.0069oz -4.3336225oz 
+110.92507oz +962.1964oz -295.97357oz +184.13458oz +574.0724oz -960.0505oz 
-657.8548oz -61.084675oz -820.145oz +739.2824oz -857.271oz +328.6322oz 
-410.2344oz -779.05133oz -147.67592oz -432.4295oz -682.735oz -358.6334oz 
-995.32043oz +609.41174oz +561.9696oz +819.43164oz -357.3904oz +686.214oz 
-384.942oz +994.52686oz -417.72595oz -15.832807oz -187.62332oz +309.67673oz 
+346.5264oz +181.43909oz +142.17844oz -309.66855oz -900.44934oz -346.24753oz 
+86.53823oz +613.93243oz -929.5084oz +378.35oz +337.7247oz +555.3208oz 
-107.176605oz +129.418oz +230.33456oz +5.9611006oz +450.10196oz -496.18152oz 
+71.58773oz +144.08685oz -443.84055oz +143.58958oz +454.34714oz -165.75455oz 
-841.0144oz -18.559551oz +119.515854oz -195.35162oz +448.29974oz +33.220753oz 
-809.2181oz -898.80255oz +468.65195oz +546.55914oz -802.17oz +553.37854oz 
-215.17389oz -523.3691oz +72.64647oz -578.0179oz -263.0331oz +499.41843oz 
-264.451oz -778.0627oz -355.83514oz +731.73334oz -921.29346oz +808.318oz 
+632.8581oz +162.90904oz +664.9834oz +608.3405oz -993.55585oz +78.352295oz 
-262.8443oz +813.86206oz -665.73486oz -585.36285oz +775.75525oz -398.255oz 
+293.8124oz +292.959oz +228.22633oz -47.945023oz -113.56093oz -821.35455oz 
-491.91412oz +25.678123oz -29.745728oz -19.992231oz +323.98315oz -525.5477oz 
-663.062oz +23.041117oz +751.7198oz +773.6886oz -682.77734oz -521.26337oz 
-244.80515oz +378.5431oz +991.4863oz -879.15686oz -366.65256oz +684.6067oz 
-578.3825oz +976.2801oz -846.21643oz +133.55864oz -107.45561oz +901.6652oz 
+261.6784oz +886.6844oz -557.0187oz -880.2261oz -777.41754oz -212.49532oz 
-476.97217oz -60.06661oz +625.67004oz -393.45285oz -680.2112oz +39.59691oz 
-274.28516oz -155.70267oz -434.5821oz +263.36237oz -471.98413oz +875.72534oz 
+471.79443oz +665.49243oz -612.5271oz -67.80992oz -379.69495oz +189.67534oz 
+109.19532oz -906.2565oz +194.30954oz -64.565056oz +720.9945oz +786.21375oz 
-258.05954oz -963.52637oz +21.985722oz -177.05833oz -660.55853oz +427.62476oz 
+455.14966oz -272.22186oz +828.3961oz -180.76718oz -662.1913oz +189.37195oz 
+80.31445oz -215.89983oz +30.690308oz +724.8533oz +214.18452oz -781.1695oz 
-650.0042oz +916.2957oz +442.18762oz +644.9542oz -117.33014oz +917.29443oz 
+240.60887oz +268.67032oz +885.3314oz +938.06976oz -930.6487oz +766.26105oz 
-92.73561oz -256.01175oz -56.65846oz -779.2738oz -69.30963oz +550.01666oz 
-878.2072oz -646.4322oz +956.6189oz +62.52063oz +542.38464oz -496.60867oz 
-135.97633oz +343.1382oz +752.7473oz +144.10448oz -404.98727oz +577.81024oz 
-1.314328oz +915.1428oz -94.09733oz -757.3689oz +680.01855oz -784.4818oz 
-564.54846oz +189.425oz -638.01953oz -451.05328oz -779.1503oz +107.48489oz 
-1.2843454oz -231.53365oz -887.2726oz -381.20203oz +320.84317oz +900.7532oz 
-15.464768oz -581.6702oz +366.12515oz -857.8498oz -705.11oz -905.665oz 
+129.78113oz +247.07411oz -688.51807oz +712.7383oz -860.3993oz -912.1512oz 
-944.86566oz +679.0741oz +189.52063oz -313.10587oz +227.38794oz -822.01013oz 
-669.35913oz +784.4576oz +503.2297oz +899.1325oz +287.6348oz -763.6913oz 
+997.361oz -935.8491oz -775.92377oz -868.91046oz +781.9642oz -885.34875oz 
-777.93353oz +954.5782oz -102.69791oz +674.85126oz -194.1081oz -524.2533oz 
+883.24585oz -142.05568oz +268.97046oz +129.22707oz +99.5541oz +615.6923oz 
+237.60788oz -631.96716oz -965.1658oz -144.08528oz +597.7065oz +463.27515oz 
-119.05754oz +625.631oz -323.5414oz +252.06316oz +257.3848oz +345.10022oz 
-588.32904oz +456.65695oz +900.5422oz -669.6683oz -811.347oz +876.5308oz 
+236.94495oz -908.58124oz -96.228355oz -173.3808oz -234.93791oz +590.3631oz 
-376.837oz -780.4429oz -464.23795oz -661.47107oz +837.1291oz -828.9617oz 
-318.31665oz -360.3044oz -421.40814oz +970.7163oz +579.1291oz +770.4743oz 
+501.37897oz +225.51022oz -515.59485oz -307.2392oz +16.407742oz -232.52953oz 
-957.2381oz -641.01385oz -653.39325oz -534.4784oz -34.39206oz +811.85693oz 
-882.6567oz +773.39575oz +526.3755oz +538.84357oz -916.2555oz +927.0608oz 
-9.045741oz +978.2303oz -905.1281oz +964.8928oz +243.13606oz +434.31674oz 
+941.4749oz +552.25256oz -494.78256oz +776.9121oz -682.78284oz -682.0495oz 
-729.6477oz +569.3114oz -663.89923oz +362.56375oz +872.0458oz -160.6885oz 
-613.5607oz -740.387oz -570.4773oz -246.81165oz +341.78473oz -287.38934oz 
