0 <= x < 570;     y_0 = 61.885714285714286 + 0.0019799498746867167x;   least-squares
0 <= x < 30;      y_1 = 50.0 + 0.6x;                                   interpolation
30 <= x < 60;     y_2 = 84.0 + -0.5333333333333333x;                   interpolation
60 <= x < 90;     y_3 = 16.0 + 0.6x;                                   interpolation
90 <= x < 120;    y_4 = 106.0 + -0.4x;                                 interpolation
120 <= x < 150;   y_5 = 22.0 + 0.3x;                                   interpolation
150 <= x < 180;   y_6 = 87.0 + -0.13333333333333333x;                  interpolation
180 <= x < 210;   y_7 = 15.0 + 0.26666666666666666x;                   interpolation
210 <= x < 240;   y_8 = 113.0 + -0.2x;                                 interpolation
240 <= x < 270;   y_9 = 17.0 + 0.2x;                                   interpolation
270 <= x < 300;   y_10 = 107.0 + -0.13333333333333333x;                interpolation
300 <= x < 330;   y_11 = 187.0 + -0.4x;                                interpolation
330 <= x < 360;   y_12 = -44.0 + 0.3x;                                 interpolation
360 <= x < 390;   y_13 = 196.0 + -0.36666666666666664x;                interpolation
390 <= x < 420;   y_14 = 27.0 + 0.06666666666666667x;                  interpolation
420 <= x < 450;   y_15 = -169.0 + 0.5333333333333333x;                 interpolation
450 <= x < 480;   y_16 = 71.0 + 0.0x;                                  interpolation
480 <= x < 510;   y_17 = 327.0 + -0.5333333333333333x;                 interpolation
510 <= x < 540;   y_18 = 89.0 + -0.06666666666666667x;                 interpolation
540 <= x < 570;   y_19 = -253.0 + 0.5666666666666667x;                 interpolation
