X    |  Y_0   Y_1   Y_2   Y_3   
---  |  ----  ----  ----  ----  
0    |  61.0  63.0  50.0  58.0  
30   |  80.0  81.0  68.0  77.0  
60   |  62.0  63.0  52.0  60.0  
90   |  83.0  82.0  70.0  79.0  
120  |  68.0  69.0  58.0  65.0  
150  |  82.0  81.0  67.0  77.0  
180  |  76.0  78.0  63.0  73.0  
210  |  83.0  84.0  71.0  79.0  
240  |  74.0  77.0  65.0  73.0  
270  |  83.0  81.0  71.0  79.0  
300  |  77.0  79.0  67.0  74.0  
330  |  65.0  68.0  55.0  64.0  
360  |  78.0  83.0  64.0  78.0  
390  |  66.0  67.0  53.0  62.0  
420  |  65.0  67.0  55.0  63.0  
450  |  85.0  83.0  71.0  75.0  
480  |  85.0  83.0  71.0  81.0  
510  |  66.0  67.0  55.0  64.0  
540  |  61.0  67.0  53.0  62.0  
570  |  84.0  83.0  70.0  81.0  
